%!PS-Adobe-3.0
%%LanguageLevel: 2
%%Creator: Quipper
%%BoundingBox: (atend)
%%HiResBoundingBox: (atend)
%%Pages: (atend)
%%EndComments
%%BeginSetup
/textbox { /b exch def /align exch def /y1 exch def /x1 exch def /y0 exch def /x0 exch def /dx x1 x0 sub def /dy y1 y0 sub def /d dx dx mul dy dy mul add sqrt def dup stringwidth pop /w exch def /fontscale w d le {d} {w} ifelse def gsave [dx dy dy neg dx x0 y0] concat 1 fontscale div dup scale fontscale w sub align mul b moveto show grestore } bind def
% some parameters
0.02 setlinewidth
/gatepad 0.3 def
/gateheight 0.8 def
/stringbase 0.25 def
/dotradius 0.15 def
/oplusradius 0.25 def
/crossradius 0.2 def
/barwidth 0.1 def
/barheight 0.5 def
/dwidth 0.3 def
/dheight 0.4 def
/maxgatelabelwidth 1.1 def
/maxlabelwidth 0.7 def
/maxnumberwidth 0.7 def
/gatefont { /Times-Roman findfont .5 scalefont setfont } def
/labelfont { /Times-Roman findfont .3 scalefont setfont } def
/commentfont { /Times-Roman findfont .3 scalefont setfont } def
/numberfont { /Times-Roman findfont .5 scalefont setfont } def
/labelcolor { 0 0 1 setrgbcolor } def
/commentcolor { 1 0.2 0.2 setrgbcolor } def
/numbercolor { 0 0.7 0 setrgbcolor } def
% subroutine definitions
/line { moveto lineto stroke } bind def
/dashedline { moveto gsave [0.3 0.2] .15 setdash lineto stroke grestore } bind def
/rect { /H exch def /W exch def -.5 W mul .5 H mul moveto W 0 rlineto 0 H neg rlineto W neg 0 rlineto closepath } bind def
/oval { /H exch def /W exch def gsave .5 W mul .5 H mul scale 0 0 1 0 360 newpath arc gsave 1.0 setgray fill grestore stroke grestore } bind def
/dot { dotradius 0 360 newpath arc gsave 0 setgray fill grestore newpath } bind def
/circ { dotradius 0 360 newpath arc gsave 1.0 setgray fill grestore stroke } bind def
/oplus { gsave translate 0 0 oplusradius 0 360 newpath arc gsave 1.0 setgray fill grestore stroke 0 oplusradius neg 0 oplusradius line oplusradius neg 0 oplusradius 0 line grestore } bind def
/cross { gsave translate crossradius dup dup neg dup line crossradius dup neg dup dup neg line grestore } bind def
/bar { gsave translate barwidth barheight rect fill grestore } bind def
/dbar { gsave translate barwidth 0.5 mul 0 translate dwidth dheight scale -1 -.5 moveto -.5 0 .5 -90 90 arc -1 .5 lineto closepath fill grestore } bind def
/box { gsave translate gatefont stringwidth pop /w exch def /w1 w gatepad add def w1 gateheight rect gsave 1.0 setgray fill grestore stroke grestore } bind def
/gate { gsave translate dup gatefont stringwidth pop /w exch def /fontscale w maxgatelabelwidth div def /fontscale fontscale 1 le {1} {fontscale} ifelse def /w2 w fontscale div def /w1 w2 gatepad add def w1 gateheight rect gsave 1.0 setgray fill grestore stroke 1 fontscale div dup scale 0 .5 w mul sub -0.5 stringbase mul moveto show grestore } bind def
/circgate { gsave translate dup gatefont stringwidth pop /w exch def /fontscale w maxgatelabelwidth div def /fontscale fontscale 1 le {1} {fontscale} ifelse def /w2 w fontscale div def /w1 w2 gatepad add def w1 0.8 gateheight mul oval gsave 1.0 setgray fill grestore stroke 1 fontscale div dup scale 0 .5 w mul sub -0.5 stringbase mul moveto show grestore } bind def
/gphase { gsave translate 0 -0.5 circgate grestore } bind def
/init { gsave translate dup gatefont stringwidth pop /w exch def /w1 w gatepad add def -.5 w1 mul 0 translate 0.5 w1 mul 0 bar 0 .5 w mul sub -0.5 stringbase mul moveto show grestore } bind def
/term { gsave translate dup gatefont stringwidth pop /w exch def /w1 w gatepad add def .5 w1 mul 0 translate -0.5 w1 mul 0 bar 0 .5 w mul sub -0.5 stringbase mul moveto show grestore } bind def
/dterm { gsave translate dup gatefont stringwidth pop /w exch def /w1 w gatepad add def .5 w1 mul 0 translate -0.5 w1 mul 0 dbar 0 .5 w mul sub -0.5 stringbase mul moveto show grestore } bind def
/comment { gsave /b exch def /maxh exch def /y exch def /x exch def commentfont commentcolor x y maxh sub x y 0.4 add 1.0 b textbox grestore } bind def
/clabel { gsave translate dup labelfont stringwidth pop /w exch def /fontscale w maxlabelwidth 2 mul div def /fontscale fontscale 1 le {1} {fontscale} ifelse def 0 0.15 translate 1 fontscale div dup scale -0.5 w mul 0 moveto labelcolor show grestore } bind def
/rlabel { gsave translate dup labelfont stringwidth pop /w exch def /fontscale w maxlabelwidth div def /fontscale fontscale 1 le {1} {fontscale} ifelse def 0 0.15 translate 1 fontscale div dup scale 0 0 moveto labelcolor show grestore } bind def
/lnumber { gsave translate dup numberfont stringwidth pop /w exch def /fontscale w maxnumberwidth div def /fontscale fontscale 1 le {1} {fontscale} ifelse def -0.2 -0.15 translate 1 fontscale div dup scale -1 w mul 0 moveto numbercolor show grestore } bind def
/rnumber { gsave translate dup numberfont stringwidth pop /w exch def /fontscale w maxnumberwidth div def /fontscale fontscale 1 le {1} {fontscale} ifelse def 0.2 -0.15 translate 1 fontscale div dup scale 0 0 moveto numbercolor show grestore } bind def
%%EndSetup
%%Page: 1 1
%%PageBoundingBox: 0 0 65 30
%%PageHiResBoundingBox: 0 0 65.0 30.0
save
10.0 10.0 scale
2.5 1.0 translate
0.02 setlinewidth
1.5 0.0 1.5 1.0 line
-1.5 1.0 3.0 1.0 line
0.0 0.0 3.0 0.0 line
(0) 0.0 0.0 init
1.5 1.0 dot
1.5 0.0 oplus
showpage
restore
%%Trailer
%%BoundingBox: 0 0 65 30
%%HiResBoundingBox: 0 0 65.0 30.0
%%Pages: 1
%%EOF
